<?xml version="1.0" encoding="UTF-8"?>
<svg width="66px" height="66px" viewBox="0 0 66 66" version="1.1" xmlns="http://www.w3.org/2000/svg" xmlns:xlink="http://www.w3.org/1999/xlink">
    <!-- Generator: Sketch 52.5 (67469) - http://www.bohemiancoding.com/sketch -->
    <title>Shape</title>
    <desc>Created with Sketch.</desc>
    <g id="Page-1" stroke="none" stroke-width="1" fill="none" fill-rule="evenodd">
        <g id="logo" fill="#2969A1" fill-rule="nonzero">
            <path d="M32.9,0 C14.7,0 0,14.7 0,32.9 C0,51.1 14.7,65.8 32.9,65.8 C51.1,65.8 65.8,51.1 65.8,32.9 C65.9,14.7 51.1,0 32.9,0 Z M34.9,47.8 L34.9,34.1 L45.1,34.1 L45.1,47.8 L34.9,47.8 Z M50.7,48 L50.7,25.7 L55.8,28 L58.6,21.9 L32.8,10.2 L25.1,13.8 L25.1,8.9 L17.4,8.9 L17.4,17.4 L7.6,22 L10.4,28.1 L15.5,25.8 L15.5,48 L5.6,48 C3.1,43.5 1.7,38.4 1.7,33 C1.7,15.8 15.7,1.8 32.9,1.8 C50.1,1.8 64.1,15.8 64.1,33 C64.1,38.4 62.7,43.6 60.2,48 L50.7,48 Z" id="Shape"></path>
        </g>
    </g>
</svg>